<mxfile host="Electron" modified="2023-05-22T12:59:46.949Z" agent="Mozilla/5.0 (Windows NT 10.0; Win64; x64) AppleWebKit/537.36 (KHTML, like Gecko) draw.io/21.2.8 Chrome/112.0.5615.165 Electron/24.2.0 Safari/537.36" etag="-YLp_WAq-41ScaZgvyqU" version="21.2.8" type="device">
  <diagram name="Seite-1" id="Z6pWEw_M4f82BJYd6Kaz">
    <mxGraphModel dx="1098" dy="828" grid="1" gridSize="10" guides="1" tooltips="1" connect="1" arrows="1" fold="1" page="1" pageScale="1" pageWidth="827" pageHeight="1169" math="0" shadow="0">
      <root>
        <mxCell id="0" />
        <mxCell id="1" parent="0" />
        <mxCell id="jHnXVsVru7CDOLpuBVuc-1" style="edgeStyle=orthogonalEdgeStyle;html=1;exitX=0.5;exitY=1;exitDx=0;exitDy=0;entryX=0.5;entryY=0;entryDx=0;entryDy=0;fontFamily=Helvetica;fontSize=16;startArrow=none;startFill=0;strokeColor=default;endArrow=blockThin;endFill=1;strokeWidth=3;" edge="1" parent="1" source="jHnXVsVru7CDOLpuBVuc-15" target="jHnXVsVru7CDOLpuBVuc-37">
          <mxGeometry relative="1" as="geometry">
            <Array as="points">
              <mxPoint x="260" y="420" />
              <mxPoint x="190" y="420" />
              <mxPoint x="190" y="710" />
              <mxPoint x="220" y="710" />
            </Array>
          </mxGeometry>
        </mxCell>
        <mxCell id="jHnXVsVru7CDOLpuBVuc-2" style="edgeStyle=orthogonalEdgeStyle;html=1;exitX=0.5;exitY=1;exitDx=0;exitDy=0;entryX=0.376;entryY=0.011;entryDx=0;entryDy=0;entryPerimeter=0;fontFamily=Helvetica;fontSize=16;startArrow=none;startFill=0;strokeColor=default;endArrow=blockThin;endFill=1;strokeWidth=3;" edge="1" parent="1" source="jHnXVsVru7CDOLpuBVuc-18" target="jHnXVsVru7CDOLpuBVuc-37">
          <mxGeometry relative="1" as="geometry">
            <Array as="points">
              <mxPoint x="100" y="420" />
              <mxPoint x="170" y="420" />
              <mxPoint x="170" y="720" />
              <mxPoint x="205" y="720" />
            </Array>
          </mxGeometry>
        </mxCell>
        <mxCell id="jHnXVsVru7CDOLpuBVuc-3" style="edgeStyle=orthogonalEdgeStyle;html=1;exitX=0.25;exitY=1;exitDx=0;exitDy=0;entryX=0.5;entryY=0;entryDx=0;entryDy=0;fontFamily=Helvetica;fontSize=10;startArrow=none;startFill=0;strokeWidth=3;endArrow=blockThin;endFill=1;" edge="1" parent="1" source="jHnXVsVru7CDOLpuBVuc-54" target="jHnXVsVru7CDOLpuBVuc-27">
          <mxGeometry relative="1" as="geometry">
            <Array as="points">
              <mxPoint x="510" y="320" />
              <mxPoint x="460" y="320" />
            </Array>
          </mxGeometry>
        </mxCell>
        <mxCell id="jHnXVsVru7CDOLpuBVuc-4" value="AccSig" style="edgeLabel;html=1;align=center;verticalAlign=middle;resizable=0;points=[];fontSize=14;fontFamily=Helvetica;" vertex="1" connectable="0" parent="jHnXVsVru7CDOLpuBVuc-3">
          <mxGeometry x="-0.7999" y="4" relative="1" as="geometry">
            <mxPoint x="-34" y="107" as="offset" />
          </mxGeometry>
        </mxCell>
        <mxCell id="jHnXVsVru7CDOLpuBVuc-5" style="edgeStyle=orthogonalEdgeStyle;html=1;exitX=0.75;exitY=1;exitDx=0;exitDy=0;entryX=0.5;entryY=0;entryDx=0;entryDy=0;fontFamily=Helvetica;fontSize=10;startArrow=none;startFill=0;strokeWidth=3;endArrow=blockThin;endFill=1;" edge="1" parent="1" source="jHnXVsVru7CDOLpuBVuc-54" target="jHnXVsVru7CDOLpuBVuc-25">
          <mxGeometry relative="1" as="geometry">
            <Array as="points">
              <mxPoint x="570" y="320" />
              <mxPoint x="620" y="320" />
            </Array>
          </mxGeometry>
        </mxCell>
        <mxCell id="jHnXVsVru7CDOLpuBVuc-6" value="LatSig" style="edgeLabel;html=1;align=center;verticalAlign=middle;resizable=0;points=[];fontSize=14;fontFamily=Helvetica;" vertex="1" connectable="0" parent="jHnXVsVru7CDOLpuBVuc-5">
          <mxGeometry x="-0.6667" y="-1" relative="1" as="geometry">
            <mxPoint x="31" y="85" as="offset" />
          </mxGeometry>
        </mxCell>
        <mxCell id="jHnXVsVru7CDOLpuBVuc-7" style="edgeStyle=orthogonalEdgeStyle;html=1;exitX=1;exitY=0.5;exitDx=0;exitDy=0;entryX=0;entryY=0.5;entryDx=0;entryDy=0;fontFamily=Helvetica;fontSize=16;startArrow=classic;startFill=1;strokeColor=default;endArrow=blockThin;endFill=1;strokeWidth=3;" edge="1" parent="1" source="jHnXVsVru7CDOLpuBVuc-55" target="jHnXVsVru7CDOLpuBVuc-54">
          <mxGeometry relative="1" as="geometry" />
        </mxCell>
        <mxCell id="jHnXVsVru7CDOLpuBVuc-8" style="edgeStyle=orthogonalEdgeStyle;html=1;exitX=0;exitY=0.5;exitDx=0;exitDy=0;entryX=1;entryY=0.5;entryDx=0;entryDy=0;fontFamily=Helvetica;fontSize=16;startArrow=classic;startFill=1;strokeColor=default;endArrow=blockThin;endFill=1;strokeWidth=3;" edge="1" parent="1" source="jHnXVsVru7CDOLpuBVuc-55" target="jHnXVsVru7CDOLpuBVuc-53">
          <mxGeometry relative="1" as="geometry" />
        </mxCell>
        <mxCell id="jHnXVsVru7CDOLpuBVuc-9" style="edgeStyle=orthogonalEdgeStyle;html=1;exitX=0.25;exitY=1;exitDx=0;exitDy=0;entryX=0.5;entryY=0;entryDx=0;entryDy=0;fontFamily=Helvetica;fontSize=16;endArrow=blockThin;endFill=1;strokeWidth=3;" edge="1" parent="1" source="jHnXVsVru7CDOLpuBVuc-53" target="jHnXVsVru7CDOLpuBVuc-30">
          <mxGeometry relative="1" as="geometry" />
        </mxCell>
        <mxCell id="jHnXVsVru7CDOLpuBVuc-10" value="Acceleration&lt;br&gt;Signal&lt;br&gt;(AccSig)" style="edgeLabel;html=1;align=center;verticalAlign=middle;resizable=0;points=[];fontSize=14;fontFamily=Helvetica;labelBackgroundColor=none;" vertex="1" connectable="0" parent="jHnXVsVru7CDOLpuBVuc-9">
          <mxGeometry x="-0.382" y="-2" relative="1" as="geometry">
            <mxPoint x="-76" y="-8" as="offset" />
          </mxGeometry>
        </mxCell>
        <mxCell id="jHnXVsVru7CDOLpuBVuc-11" style="edgeStyle=orthogonalEdgeStyle;html=1;exitX=0.75;exitY=1;exitDx=0;exitDy=0;entryX=0.5;entryY=0;entryDx=0;entryDy=0;fontFamily=Helvetica;fontSize=10;startArrow=none;startFill=0;strokeWidth=3;endArrow=blockThin;endFill=1;" edge="1" parent="1" source="jHnXVsVru7CDOLpuBVuc-53" target="jHnXVsVru7CDOLpuBVuc-15">
          <mxGeometry relative="1" as="geometry" />
        </mxCell>
        <mxCell id="jHnXVsVru7CDOLpuBVuc-12" value="Lateral&lt;br&gt;Signal&lt;br&gt;(LatSig)" style="edgeLabel;html=1;align=center;verticalAlign=middle;resizable=0;points=[];fontSize=14;fontFamily=Helvetica;labelBackgroundColor=none;" vertex="1" connectable="0" parent="jHnXVsVru7CDOLpuBVuc-11">
          <mxGeometry x="0.1716" relative="1" as="geometry">
            <mxPoint x="49" y="-10" as="offset" />
          </mxGeometry>
        </mxCell>
        <mxCell id="jHnXVsVru7CDOLpuBVuc-13" style="edgeStyle=orthogonalEdgeStyle;html=1;exitX=0.5;exitY=1;exitDx=0;exitDy=0;entryX=0.5;entryY=0;entryDx=0;entryDy=0;fontFamily=Helvetica;fontSize=10;startArrow=none;startFill=0;strokeWidth=3;endArrow=blockThin;endFill=1;" edge="1" parent="1" source="jHnXVsVru7CDOLpuBVuc-15" target="jHnXVsVru7CDOLpuBVuc-52">
          <mxGeometry relative="1" as="geometry" />
        </mxCell>
        <mxCell id="jHnXVsVru7CDOLpuBVuc-14" value="LatSig" style="edgeLabel;html=1;align=center;verticalAlign=middle;resizable=0;points=[];fontSize=14;fontFamily=Helvetica;" vertex="1" connectable="0" parent="jHnXVsVru7CDOLpuBVuc-13">
          <mxGeometry x="-0.275" y="-2" relative="1" as="geometry">
            <mxPoint x="32" y="-38" as="offset" />
          </mxGeometry>
        </mxCell>
        <mxCell id="jHnXVsVru7CDOLpuBVuc-15" value="&lt;font style=&quot;font-size: 10px&quot;&gt;&lt;b&gt;Prioritizer&lt;/b&gt;&lt;/font&gt;&lt;br style=&quot;font-size: 16px&quot;&gt;Steering&lt;br style=&quot;font-size: 16px&quot;&gt;Vehicle&lt;br style=&quot;font-size: 16px&quot;&gt;Components" style="whiteSpace=wrap;html=1;fillColor=#FFF2CC;strokeColor=#D6B656;fontSize=16;fontFamily=Helvetica;rounded=1;glass=0;sketch=0;shadow=1;" vertex="1" parent="1">
          <mxGeometry x="199.94" y="200" width="120" height="80" as="geometry" />
        </mxCell>
        <mxCell id="jHnXVsVru7CDOLpuBVuc-16" style="edgeStyle=orthogonalEdgeStyle;html=1;exitX=0.5;exitY=1;exitDx=0;exitDy=0;entryX=0.5;entryY=0;entryDx=0;entryDy=0;fontFamily=Helvetica;fontSize=16;endArrow=blockThin;endFill=1;strokeWidth=3;" edge="1" parent="1" source="jHnXVsVru7CDOLpuBVuc-18" target="jHnXVsVru7CDOLpuBVuc-33">
          <mxGeometry relative="1" as="geometry" />
        </mxCell>
        <mxCell id="jHnXVsVru7CDOLpuBVuc-17" value="AccSig" style="edgeLabel;html=1;align=center;verticalAlign=middle;resizable=0;points=[];fontSize=14;fontFamily=Helvetica;" vertex="1" connectable="0" parent="jHnXVsVru7CDOLpuBVuc-16">
          <mxGeometry x="0.3167" relative="1" as="geometry">
            <mxPoint x="-30" y="-6" as="offset" />
          </mxGeometry>
        </mxCell>
        <mxCell id="jHnXVsVru7CDOLpuBVuc-18" value="&lt;font style=&quot;font-size: 10px&quot;&gt;&lt;b&gt;Limiter&lt;br&gt;&lt;/b&gt;&lt;/font&gt;Acceleration&lt;br style=&quot;font-size: 16px&quot;&gt;Vehicle&lt;br style=&quot;font-size: 16px&quot;&gt;Components" style="whiteSpace=wrap;html=1;fillColor=#d5e8d4;strokeColor=#82b366;fontSize=16;fontFamily=Helvetica;rounded=1;glass=0;sketch=0;shadow=1;" vertex="1" parent="1">
          <mxGeometry x="40" y="320" width="120" height="80" as="geometry" />
        </mxCell>
        <mxCell id="jHnXVsVru7CDOLpuBVuc-19" value="&lt;font style=&quot;font-size: 10px&quot;&gt;&lt;b&gt;Prioritizer&lt;/b&gt;&lt;/font&gt;&lt;br style=&quot;font-size: 16px&quot;&gt;Dynamics" style="whiteSpace=wrap;html=1;fillColor=#fff2cc;strokeColor=#d6b656;fontSize=16;fontFamily=Helvetica;rounded=1;glass=0;sketch=0;shadow=1;" vertex="1" parent="1">
          <mxGeometry x="300" y="920" width="120" height="80" as="geometry" />
        </mxCell>
        <mxCell id="jHnXVsVru7CDOLpuBVuc-20" style="edgeStyle=orthogonalEdgeStyle;html=1;exitX=0.5;exitY=1;exitDx=0;exitDy=0;entryX=0.25;entryY=0;entryDx=0;entryDy=0;fontFamily=Helvetica;fontSize=16;strokeWidth=3;endArrow=blockThin;endFill=1;" edge="1" parent="1" source="jHnXVsVru7CDOLpuBVuc-21" target="jHnXVsVru7CDOLpuBVuc-40">
          <mxGeometry relative="1" as="geometry">
            <Array as="points">
              <mxPoint x="290" y="720" />
              <mxPoint x="330" y="720" />
            </Array>
          </mxGeometry>
        </mxCell>
        <mxCell id="jHnXVsVru7CDOLpuBVuc-21" value="&lt;font style=&quot;font-size: 10px&quot;&gt;&lt;b&gt;Prioritizer&lt;/b&gt;&lt;/font&gt;&lt;br style=&quot;font-size: 16px&quot;&gt;Steering" style="whiteSpace=wrap;html=1;fillColor=#fff2cc;strokeColor=#d6b656;fontSize=16;fontFamily=Helvetica;rounded=1;glass=0;sketch=0;shadow=1;" vertex="1" parent="1">
          <mxGeometry x="230" y="610" width="120" height="80" as="geometry" />
        </mxCell>
        <mxCell id="jHnXVsVru7CDOLpuBVuc-22" style="edgeStyle=orthogonalEdgeStyle;html=1;exitX=0.5;exitY=1;exitDx=0;exitDy=0;entryX=0.75;entryY=0;entryDx=0;entryDy=0;fontFamily=Helvetica;fontSize=10;startArrow=none;startFill=0;strokeWidth=3;endArrow=blockThin;endFill=1;" edge="1" parent="1" source="jHnXVsVru7CDOLpuBVuc-23" target="jHnXVsVru7CDOLpuBVuc-40">
          <mxGeometry relative="1" as="geometry">
            <Array as="points">
              <mxPoint x="430" y="720" />
              <mxPoint x="390" y="720" />
            </Array>
          </mxGeometry>
        </mxCell>
        <mxCell id="jHnXVsVru7CDOLpuBVuc-23" value="&lt;font style=&quot;font-size: 10px&quot;&gt;&lt;b&gt;Prioritizer&lt;/b&gt;&lt;/font&gt;&lt;br style=&quot;font-size: 16px&quot;&gt;Longitudinal" style="whiteSpace=wrap;html=1;fillColor=#fff2cc;strokeColor=#d6b656;fontSize=16;fontFamily=Helvetica;rounded=1;glass=0;sketch=0;shadow=1;" vertex="1" parent="1">
          <mxGeometry x="370.00000000000006" y="610" width="120" height="80" as="geometry" />
        </mxCell>
        <mxCell id="jHnXVsVru7CDOLpuBVuc-24" style="edgeStyle=orthogonalEdgeStyle;html=1;exitX=0.5;exitY=1;exitDx=0;exitDy=0;entryX=0.75;entryY=0;entryDx=0;entryDy=0;fontFamily=Helvetica;fontSize=10;startArrow=none;startFill=0;strokeWidth=3;endArrow=blockThin;endFill=1;" edge="1" parent="1" source="jHnXVsVru7CDOLpuBVuc-25" target="jHnXVsVru7CDOLpuBVuc-21">
          <mxGeometry relative="1" as="geometry">
            <Array as="points">
              <mxPoint x="620" y="580" />
              <mxPoint x="320" y="580" />
            </Array>
          </mxGeometry>
        </mxCell>
        <mxCell id="jHnXVsVru7CDOLpuBVuc-25" value="&lt;font style=&quot;font-size: 10px&quot;&gt;&lt;b&gt;Algorithm&lt;/b&gt;&lt;/font&gt;&lt;br style=&quot;font-size: 16px&quot;&gt;Lateral" style="rounded=1;whiteSpace=wrap;html=1;fillColor=#dae8fc;strokeColor=#6c8ebf;fontSize=16;fontFamily=Helvetica;glass=0;sketch=0;shadow=1;" vertex="1" parent="1">
          <mxGeometry x="559.94" y="440" width="120" height="80" as="geometry" />
        </mxCell>
        <mxCell id="jHnXVsVru7CDOLpuBVuc-26" style="edgeStyle=orthogonalEdgeStyle;html=1;exitX=0.5;exitY=1;exitDx=0;exitDy=0;entryX=0.75;entryY=0;entryDx=0;entryDy=0;fontFamily=Helvetica;fontSize=10;startArrow=none;startFill=0;strokeWidth=3;endArrow=blockThin;endFill=1;" edge="1" parent="1" source="jHnXVsVru7CDOLpuBVuc-27" target="jHnXVsVru7CDOLpuBVuc-23">
          <mxGeometry relative="1" as="geometry" />
        </mxCell>
        <mxCell id="jHnXVsVru7CDOLpuBVuc-27" value="&lt;b style=&quot;font-size: 10px&quot;&gt;Algorithm&lt;br&gt;&lt;/b&gt;Longitudinal" style="rounded=1;whiteSpace=wrap;html=1;fillColor=#dae8fc;strokeColor=#6c8ebf;fontSize=16;fontFamily=Helvetica;glass=0;sketch=0;shadow=1;" vertex="1" parent="1">
          <mxGeometry x="400.00000000000006" y="440" width="120" height="80" as="geometry" />
        </mxCell>
        <mxCell id="jHnXVsVru7CDOLpuBVuc-28" style="edgeStyle=orthogonalEdgeStyle;html=1;exitX=0.5;exitY=1;exitDx=0;exitDy=0;entryX=0.5;entryY=0;entryDx=0;entryDy=0;fontFamily=Helvetica;fontSize=16;endArrow=blockThin;endFill=1;strokeWidth=3;" edge="1" parent="1" source="jHnXVsVru7CDOLpuBVuc-30" target="jHnXVsVru7CDOLpuBVuc-18">
          <mxGeometry relative="1" as="geometry" />
        </mxCell>
        <mxCell id="jHnXVsVru7CDOLpuBVuc-29" value="AccSig" style="edgeLabel;html=1;align=center;verticalAlign=middle;resizable=0;points=[];fontSize=14;fontFamily=Helvetica;" vertex="1" connectable="0" parent="jHnXVsVru7CDOLpuBVuc-28">
          <mxGeometry x="0.2799" relative="1" as="geometry">
            <mxPoint x="-30" y="-6" as="offset" />
          </mxGeometry>
        </mxCell>
        <mxCell id="jHnXVsVru7CDOLpuBVuc-30" value="&lt;font style=&quot;font-size: 10px&quot;&gt;&lt;b&gt;Prioritizer&lt;br&gt;&lt;/b&gt;&lt;/font&gt;Acceleration&lt;br style=&quot;font-size: 16px&quot;&gt;Vehicle&lt;br style=&quot;font-size: 16px&quot;&gt;Components" style="whiteSpace=wrap;html=1;fillColor=#fff2cc;strokeColor=#d6b656;fontSize=16;fontFamily=Helvetica;rounded=1;glass=0;sketch=0;shadow=1;" vertex="1" parent="1">
          <mxGeometry x="40" y="200" width="120" height="80" as="geometry" />
        </mxCell>
        <mxCell id="jHnXVsVru7CDOLpuBVuc-31" style="edgeStyle=orthogonalEdgeStyle;html=1;exitX=0.5;exitY=1;exitDx=0;exitDy=0;entryX=0.25;entryY=0;entryDx=0;entryDy=0;fontFamily=Helvetica;fontSize=10;startArrow=none;startFill=0;endArrow=blockThin;endFill=1;strokeWidth=3;" edge="1" parent="1" source="jHnXVsVru7CDOLpuBVuc-33" target="jHnXVsVru7CDOLpuBVuc-23">
          <mxGeometry relative="1" as="geometry">
            <Array as="points">
              <mxPoint x="100" y="560" />
              <mxPoint x="400" y="560" />
            </Array>
          </mxGeometry>
        </mxCell>
        <mxCell id="jHnXVsVru7CDOLpuBVuc-32" value="LongitudinalSignal" style="edgeLabel;html=1;align=right;verticalAlign=middle;resizable=0;points=[];fontSize=14;fontFamily=Helvetica;labelBackgroundColor=none;" vertex="1" connectable="0" parent="jHnXVsVru7CDOLpuBVuc-31">
          <mxGeometry x="-0.5187" relative="1" as="geometry">
            <mxPoint x="246" y="-11" as="offset" />
          </mxGeometry>
        </mxCell>
        <mxCell id="jHnXVsVru7CDOLpuBVuc-33" value="&lt;font style=&quot;font-size: 10px&quot;&gt;&lt;b&gt;Algorithm&lt;/b&gt;&lt;/font&gt;&lt;br style=&quot;font-size: 16px&quot;&gt;Longitudinal&lt;br style=&quot;font-size: 16px&quot;&gt;Vehicle&lt;br style=&quot;font-size: 16px&quot;&gt;Components" style="rounded=1;whiteSpace=wrap;html=1;fillColor=#dae8fc;strokeColor=#6c8ebf;fontSize=16;fontFamily=Helvetica;glass=0;sketch=0;shadow=1;" vertex="1" parent="1">
          <mxGeometry x="40" y="440" width="120" height="80" as="geometry" />
        </mxCell>
        <mxCell id="jHnXVsVru7CDOLpuBVuc-34" style="edgeStyle=orthogonalEdgeStyle;html=1;exitX=0.5;exitY=1;exitDx=0;exitDy=0;entryX=0.5;entryY=0;entryDx=0;entryDy=0;fontFamily=Helvetica;fontSize=10;startArrow=none;startFill=0;endArrow=blockThin;endFill=1;strokeWidth=3;" edge="1" parent="1" source="jHnXVsVru7CDOLpuBVuc-37" target="jHnXVsVru7CDOLpuBVuc-19">
          <mxGeometry relative="1" as="geometry">
            <Array as="points">
              <mxPoint x="220" y="870" />
              <mxPoint x="360" y="870" />
            </Array>
          </mxGeometry>
        </mxCell>
        <mxCell id="jHnXVsVru7CDOLpuBVuc-35" value="DynSig" style="edgeLabel;html=1;align=center;verticalAlign=middle;resizable=0;points=[];fontSize=14;fontFamily=Helvetica;" vertex="1" connectable="0" parent="jHnXVsVru7CDOLpuBVuc-34">
          <mxGeometry x="0.1541" y="1" relative="1" as="geometry">
            <mxPoint x="-68" y="-12" as="offset" />
          </mxGeometry>
        </mxCell>
        <mxCell id="jHnXVsVru7CDOLpuBVuc-36" style="edgeStyle=orthogonalEdgeStyle;html=1;exitX=0.25;exitY=0;exitDx=0;exitDy=0;entryX=0;entryY=0.25;entryDx=0;entryDy=0;fontFamily=Helvetica;fontSize=16;startArrow=blockThin;startFill=1;strokeColor=default;endArrow=blockThin;endFill=1;strokeWidth=3;" edge="1" parent="1" source="jHnXVsVru7CDOLpuBVuc-37" target="jHnXVsVru7CDOLpuBVuc-55">
          <mxGeometry relative="1" as="geometry">
            <Array as="points">
              <mxPoint x="190" y="730" />
              <mxPoint x="10" y="730" />
              <mxPoint x="10" y="60" />
            </Array>
          </mxGeometry>
        </mxCell>
        <mxCell id="jHnXVsVru7CDOLpuBVuc-37" value="&lt;font style=&quot;font-size: 10px&quot;&gt;&lt;b&gt;Dynamics&lt;/b&gt;&lt;/font&gt;&lt;br style=&quot;font-size: 16px&quot;&gt;Trajectory&lt;br style=&quot;font-size: 16px&quot;&gt;Follower" style="whiteSpace=wrap;html=1;fillColor=#e1d5e7;strokeColor=#9673a6;fontSize=16;fontFamily=Helvetica;rounded=1;glass=0;sketch=0;shadow=1;" vertex="1" parent="1">
          <mxGeometry x="160" y="760" width="120" height="80" as="geometry" />
        </mxCell>
        <mxCell id="jHnXVsVru7CDOLpuBVuc-38" style="edgeStyle=orthogonalEdgeStyle;html=1;exitX=1;exitY=0.5;exitDx=0;exitDy=0;entryX=0;entryY=0.5;entryDx=0;entryDy=0;fontFamily=Helvetica;fontSize=10;startArrow=none;startFill=0;strokeWidth=3;endArrow=blockThin;endFill=1;" edge="1" parent="1" source="jHnXVsVru7CDOLpuBVuc-40" target="jHnXVsVru7CDOLpuBVuc-49">
          <mxGeometry relative="1" as="geometry" />
        </mxCell>
        <mxCell id="jHnXVsVru7CDOLpuBVuc-39" value="Dyn&lt;br&gt;Sig" style="edgeLabel;html=1;align=center;verticalAlign=middle;resizable=0;points=[];fontSize=14;fontFamily=Helvetica;" vertex="1" connectable="0" parent="jHnXVsVru7CDOLpuBVuc-38">
          <mxGeometry x="-0.2854" y="-1" relative="1" as="geometry">
            <mxPoint x="4" y="-25" as="offset" />
          </mxGeometry>
        </mxCell>
        <mxCell id="jHnXVsVru7CDOLpuBVuc-40" value="&lt;font style=&quot;font-size: 10px&quot;&gt;&lt;b&gt;Dynamics&lt;/b&gt;&lt;/font&gt;&lt;br style=&quot;font-size: 16px&quot;&gt;Regular&lt;br style=&quot;font-size: 16px&quot;&gt;Driving" style="whiteSpace=wrap;html=1;fillColor=#e1d5e7;strokeColor=#9673a6;fontSize=16;fontFamily=Helvetica;rounded=1;glass=0;sketch=0;shadow=1;" vertex="1" parent="1">
          <mxGeometry x="300" y="760" width="120" height="80" as="geometry" />
        </mxCell>
        <mxCell id="jHnXVsVru7CDOLpuBVuc-41" style="edgeStyle=orthogonalEdgeStyle;html=1;exitX=0;exitY=0.5;exitDx=0;exitDy=0;entryX=1;entryY=0.5;entryDx=0;entryDy=0;fontFamily=Helvetica;fontSize=10;startArrow=none;startFill=0;endArrow=blockThin;endFill=1;strokeWidth=3;" edge="1" parent="1" source="jHnXVsVru7CDOLpuBVuc-43" target="jHnXVsVru7CDOLpuBVuc-49">
          <mxGeometry relative="1" as="geometry" />
        </mxCell>
        <mxCell id="jHnXVsVru7CDOLpuBVuc-42" value="Dyn&lt;br&gt;Sig" style="edgeLabel;html=1;align=center;verticalAlign=middle;resizable=0;points=[];fontSize=14;fontFamily=Helvetica;" vertex="1" connectable="0" parent="jHnXVsVru7CDOLpuBVuc-41">
          <mxGeometry x="0.3048" y="-1" relative="1" as="geometry">
            <mxPoint x="5" y="-23" as="offset" />
          </mxGeometry>
        </mxCell>
        <mxCell id="jHnXVsVru7CDOLpuBVuc-43" value="&lt;font style=&quot;font-size: 10px&quot;&gt;&lt;b&gt;Dynamics&lt;/b&gt;&lt;/font&gt;&lt;br style=&quot;font-size: 16px&quot;&gt;Scenario" style="whiteSpace=wrap;html=1;fillColor=#e1d5e7;strokeColor=#9673a6;fontSize=16;fontFamily=Helvetica;rounded=1;glass=0;sketch=0;shadow=1;" vertex="1" parent="1">
          <mxGeometry x="620" y="760" width="120" height="80" as="geometry" />
        </mxCell>
        <mxCell id="jHnXVsVru7CDOLpuBVuc-44" style="edgeStyle=orthogonalEdgeStyle;html=1;exitX=0.5;exitY=1;exitDx=0;exitDy=0;entryX=0.25;entryY=0;entryDx=0;entryDy=0;fontFamily=Helvetica;fontSize=10;startArrow=none;startFill=0;endArrow=blockThin;endFill=1;strokeWidth=3;" edge="1" parent="1" source="jHnXVsVru7CDOLpuBVuc-46" target="jHnXVsVru7CDOLpuBVuc-19">
          <mxGeometry relative="1" as="geometry">
            <Array as="points">
              <mxPoint x="80" y="890" />
              <mxPoint x="330" y="890" />
            </Array>
          </mxGeometry>
        </mxCell>
        <mxCell id="jHnXVsVru7CDOLpuBVuc-45" value="DynamicsSigal (DynSig)" style="edgeLabel;html=1;align=center;verticalAlign=middle;resizable=0;points=[];fontSize=14;fontFamily=Helvetica;" vertex="1" connectable="0" parent="jHnXVsVru7CDOLpuBVuc-44">
          <mxGeometry x="0.1152" y="-3" relative="1" as="geometry">
            <mxPoint x="-60" y="9" as="offset" />
          </mxGeometry>
        </mxCell>
        <mxCell id="jHnXVsVru7CDOLpuBVuc-46" value="&lt;font style=&quot;font-size: 10px&quot;&gt;&lt;b&gt;Dynamics&lt;/b&gt;&lt;/font&gt;&lt;br style=&quot;font-size: 16px&quot;&gt;Collision" style="whiteSpace=wrap;html=1;fillColor=#e1d5e7;strokeColor=#9673a6;fontSize=16;fontFamily=Helvetica;rounded=1;glass=0;sketch=0;shadow=1;" vertex="1" parent="1">
          <mxGeometry x="20" y="760" width="120" height="80" as="geometry" />
        </mxCell>
        <mxCell id="jHnXVsVru7CDOLpuBVuc-47" style="edgeStyle=orthogonalEdgeStyle;html=1;exitX=0.5;exitY=1;exitDx=0;exitDy=0;entryX=0.75;entryY=0;entryDx=0;entryDy=0;fontFamily=Helvetica;fontSize=10;startArrow=none;startFill=0;strokeWidth=3;endArrow=blockThin;endFill=1;" edge="1" parent="1" source="jHnXVsVru7CDOLpuBVuc-49" target="jHnXVsVru7CDOLpuBVuc-19">
          <mxGeometry relative="1" as="geometry">
            <Array as="points">
              <mxPoint x="520" y="870" />
              <mxPoint x="390" y="870" />
            </Array>
          </mxGeometry>
        </mxCell>
        <mxCell id="jHnXVsVru7CDOLpuBVuc-48" value="DynSig" style="edgeLabel;html=1;align=center;verticalAlign=middle;resizable=0;points=[];fontSize=14;fontFamily=Helvetica;" vertex="1" connectable="0" parent="jHnXVsVru7CDOLpuBVuc-47">
          <mxGeometry x="-0.5682" y="3" relative="1" as="geometry">
            <mxPoint x="-16" y="-17" as="offset" />
          </mxGeometry>
        </mxCell>
        <mxCell id="jHnXVsVru7CDOLpuBVuc-49" value="&lt;font style=&quot;font-size: 10px&quot;&gt;&lt;b&gt;Switch&lt;/b&gt;&lt;/font&gt;&lt;br&gt;Scenario&lt;br&gt;Controller" style="whiteSpace=wrap;html=1;fontSize=16;fontFamily=Helvetica;rounded=1;glass=0;sketch=0;shadow=1;fillColor=#b0e3e6;strokeColor=#0e8088;" vertex="1" parent="1">
          <mxGeometry x="460" y="760" width="120" height="80" as="geometry" />
        </mxCell>
        <mxCell id="jHnXVsVru7CDOLpuBVuc-50" style="edgeStyle=orthogonalEdgeStyle;html=1;exitX=0.5;exitY=1;exitDx=0;exitDy=0;entryX=0.25;entryY=0;entryDx=0;entryDy=0;fontFamily=Helvetica;fontSize=10;startArrow=none;startFill=0;strokeWidth=3;endArrow=blockThin;endFill=1;" edge="1" parent="1" source="jHnXVsVru7CDOLpuBVuc-52" target="jHnXVsVru7CDOLpuBVuc-21">
          <mxGeometry relative="1" as="geometry" />
        </mxCell>
        <mxCell id="jHnXVsVru7CDOLpuBVuc-51" value="SteeringSignal" style="edgeLabel;html=1;align=center;verticalAlign=middle;resizable=0;points=[];fontSize=14;fontFamily=Helvetica;" vertex="1" connectable="0" parent="jHnXVsVru7CDOLpuBVuc-50">
          <mxGeometry x="-0.2676" y="4" relative="1" as="geometry">
            <mxPoint x="301" y="14" as="offset" />
          </mxGeometry>
        </mxCell>
        <mxCell id="jHnXVsVru7CDOLpuBVuc-52" value="&lt;font style=&quot;font-size: 10px&quot;&gt;&lt;b&gt;Algorithm&lt;/b&gt;&lt;/font&gt;&lt;br style=&quot;font-size: 16px&quot;&gt;Lateral&lt;br style=&quot;font-size: 16px&quot;&gt;Vehicle&lt;br style=&quot;font-size: 16px&quot;&gt;Components" style="rounded=1;whiteSpace=wrap;html=1;fillColor=#dae8fc;strokeColor=#6c8ebf;fontSize=16;fontFamily=Helvetica;glass=0;sketch=0;shadow=1;" vertex="1" parent="1">
          <mxGeometry x="199.94" y="440" width="120" height="80" as="geometry" />
        </mxCell>
        <mxCell id="jHnXVsVru7CDOLpuBVuc-53" value="Vehicle&lt;br style=&quot;font-size: 16px;&quot;&gt;Components" style="whiteSpace=wrap;html=1;fillColor=#f8cecc;strokeColor=#b85450;fontSize=16;fontFamily=Helvetica;rounded=1;glass=0;sketch=0;shadow=1;" vertex="1" parent="1">
          <mxGeometry x="120" y="80" width="120" height="80" as="geometry" />
        </mxCell>
        <mxCell id="jHnXVsVru7CDOLpuBVuc-54" value="Drivers" style="rounded=1;whiteSpace=wrap;html=1;fillColor=#f8cecc;strokeColor=#b85450;fontSize=16;fontFamily=Helvetica;glass=0;sketch=0;shadow=1;" vertex="1" parent="1">
          <mxGeometry x="479.94" y="80" width="120" height="80" as="geometry" />
        </mxCell>
        <mxCell id="jHnXVsVru7CDOLpuBVuc-55" value="Component&lt;br style=&quot;font-size: 16px;&quot;&gt;Controller" style="whiteSpace=wrap;html=1;fillColor=#f5f5f5;strokeColor=#666666;fontSize=16;fontFamily=Helvetica;rounded=1;sketch=0;shadow=1;fontColor=#333333;" vertex="1" parent="1">
          <mxGeometry x="300" y="40" width="120" height="80" as="geometry" />
        </mxCell>
      </root>
    </mxGraphModel>
  </diagram>
</mxfile>
