<mxfile host="Electron" modified="2024-05-02T08:12:58.216Z" agent="Mozilla/5.0 (Windows NT 10.0; Win64; x64) AppleWebKit/537.36 (KHTML, like Gecko) draw.io/24.2.5 Chrome/120.0.6099.109 Electron/28.1.0 Safari/537.36" etag="3d-cOJpNQSGQPDddLuKU" version="24.2.5" type="device">
  <diagram name="Seite-1" id="Z6pWEw_M4f82BJYd6Kaz">
    <mxGraphModel dx="408" dy="731" grid="1" gridSize="10" guides="1" tooltips="1" connect="1" arrows="1" fold="1" page="1" pageScale="1" pageWidth="827" pageHeight="1169" math="0" shadow="0">
      <root>
        <mxCell id="0" />
        <mxCell id="1" parent="0" />
        <mxCell id="FJ86GNm1L7T-BAw07mQz-42" value="&lt;font style=&quot;font-size: 10px;&quot;&gt;Algorithm&lt;/font&gt;&lt;br style=&quot;font-size: 15px;&quot;&gt;Lateral&lt;br style=&quot;font-size: 15px;&quot;&gt;Driver" style="rounded=1;whiteSpace=wrap;html=1;fontFamily=Helvetica;fontSize=15;labelBackgroundColor=none;arcSize=5;strokeWidth=1;fillColor=#cce5ff;strokeColor=#36393d;align=left;verticalAlign=top;spacingTop=0;spacing=10;fontStyle=1" parent="1" vertex="1">
          <mxGeometry x="870" y="185" width="530" height="310" as="geometry" />
        </mxCell>
        <mxCell id="FJ86GNm1L7T-BAw07mQz-7" value="World" style="whiteSpace=wrap;html=1;fillColor=#f5f5f5;strokeColor=#666666;fontSize=16;fontFamily=Helvetica;rounded=1;sketch=0;shadow=1;fontColor=#333333;" parent="1" vertex="1">
          <mxGeometry x="1050" y="650" width="120" height="80" as="geometry" />
        </mxCell>
        <mxCell id="FJ86GNm1L7T-BAw07mQz-43" value="" style="edgeStyle=orthogonalEdgeStyle;rounded=1;orthogonalLoop=1;jettySize=auto;html=1;strokeColor=default;strokeWidth=3;align=center;verticalAlign=middle;fontFamily=Helvetica;fontSize=10;fontColor=default;labelBackgroundColor=default;startArrow=none;startFill=0;endArrow=blockThin;endFill=1;" parent="1" source="FJ86GNm1L7T-BAw07mQz-8" target="FJ86GNm1L7T-BAw07mQz-5" edge="1">
          <mxGeometry relative="1" as="geometry" />
        </mxCell>
        <mxCell id="FJ86GNm1L7T-BAw07mQz-8" value="Vehicle&lt;br&gt;Dynamics" style="whiteSpace=wrap;html=1;fillColor=#e1d5e7;strokeColor=#9673a6;fontSize=16;fontFamily=Helvetica;rounded=1;sketch=0;shadow=1;" parent="1" vertex="1">
          <mxGeometry x="1050" y="535" width="120" height="80" as="geometry" />
        </mxCell>
        <mxCell id="FJ86GNm1L7T-BAw07mQz-9" value="+" style="ellipse;whiteSpace=wrap;html=1;fontSize=20;fontStyle=1" parent="1" vertex="1">
          <mxGeometry x="1255" y="285" width="30" height="30" as="geometry" />
        </mxCell>
        <mxCell id="FJ86GNm1L7T-BAw07mQz-13" style="edgeStyle=orthogonalEdgeStyle;html=1;exitX=1;exitY=0.75;exitDx=0;exitDy=0;entryX=0;entryY=0.5;entryDx=0;entryDy=0;fontFamily=Helvetica;fontSize=10;startArrow=none;startFill=0;strokeWidth=3;endArrow=blockThin;endFill=1;" parent="1" source="FJ86GNm1L7T-BAw07mQz-1" target="FJ86GNm1L7T-BAw07mQz-9" edge="1">
          <mxGeometry relative="1" as="geometry">
            <mxPoint x="70" y="165" as="sourcePoint" />
            <mxPoint x="120" y="205" as="targetPoint" />
          </mxGeometry>
        </mxCell>
        <mxCell id="FJ86GNm1L7T-BAw07mQz-17" style="edgeStyle=orthogonalEdgeStyle;html=1;exitX=0.5;exitY=1;exitDx=0;exitDy=0;fontFamily=Helvetica;fontSize=10;startArrow=none;startFill=0;strokeWidth=3;endArrow=blockThin;endFill=1;entryX=1;entryY=0.5;entryDx=0;entryDy=0;" parent="1" source="FJ86GNm1L7T-BAw07mQz-3" target="FJ86GNm1L7T-BAw07mQz-9" edge="1">
          <mxGeometry relative="1" as="geometry">
            <mxPoint x="1180" y="105" as="sourcePoint" />
            <mxPoint x="1320" y="175" as="targetPoint" />
          </mxGeometry>
        </mxCell>
        <mxCell id="FJ86GNm1L7T-BAw07mQz-23" value="&lt;font face=&quot;symbol&quot; style=&quot;font-size: 14px;&quot;&gt;k&lt;/font&gt;&lt;span style=&quot;font-size: 12px;&quot;&gt;&lt;sub&gt;road&lt;/sub&gt;&lt;/span&gt;" style="edgeLabel;html=1;align=center;verticalAlign=middle;resizable=0;points=[];fontFamily=Helvetica;fontSize=12;fontColor=default;labelBackgroundColor=none;" parent="FJ86GNm1L7T-BAw07mQz-17" vertex="1" connectable="0">
          <mxGeometry x="-0.6041" y="1" relative="1" as="geometry">
            <mxPoint x="19" y="-4" as="offset" />
          </mxGeometry>
        </mxCell>
        <mxCell id="FJ86GNm1L7T-BAw07mQz-19" style="edgeStyle=orthogonalEdgeStyle;html=1;exitX=0.5;exitY=1;exitDx=0;exitDy=0;entryX=0.5;entryY=0;entryDx=0;entryDy=0;fontFamily=Helvetica;fontSize=10;startArrow=none;startFill=0;strokeWidth=3;endArrow=blockThin;endFill=1;" parent="1" source="FJ86GNm1L7T-BAw07mQz-9" target="FJ86GNm1L7T-BAw07mQz-4" edge="1">
          <mxGeometry relative="1" as="geometry">
            <mxPoint x="1180" y="145" as="sourcePoint" />
            <mxPoint x="1225" y="285" as="targetPoint" />
          </mxGeometry>
        </mxCell>
        <mxCell id="FJ86GNm1L7T-BAw07mQz-20" value="&lt;font style=&quot;font-size: 14px;&quot; face=&quot;symbol&quot;&gt;k&lt;/font&gt;&lt;span style=&quot;font-size: 12px;&quot;&gt;&lt;sub&gt;set&lt;/sub&gt;&lt;/span&gt;" style="edgeLabel;html=1;align=center;verticalAlign=middle;resizable=0;points=[];fontSize=12;fontFamily=Helvetica;labelBackgroundColor=none;" parent="FJ86GNm1L7T-BAw07mQz-19" vertex="1" connectable="0">
          <mxGeometry x="0.1716" relative="1" as="geometry">
            <mxPoint x="20" y="-7" as="offset" />
          </mxGeometry>
        </mxCell>
        <mxCell id="FJ86GNm1L7T-BAw07mQz-25" value="&lt;font face=&quot;symbol&quot; style=&quot;font-size: 14px;&quot;&gt;k&lt;/font&gt;&lt;sub&gt;manoeuvre&lt;/sub&gt;" style="edgeLabel;html=1;align=center;verticalAlign=bottom;resizable=0;points=[];fontSize=12;fontFamily=Helvetica;labelBackgroundColor=none;" parent="1" vertex="1" connectable="0">
          <mxGeometry x="1247" y="184.00428571428566" as="geometry">
            <mxPoint x="2" y="-3" as="offset" />
          </mxGeometry>
        </mxCell>
        <mxCell id="FJ86GNm1L7T-BAw07mQz-15" style="edgeStyle=orthogonalEdgeStyle;html=1;exitX=1;exitY=0.5;exitDx=0;exitDy=0;fontFamily=Helvetica;fontSize=10;startArrow=none;startFill=0;strokeWidth=3;endArrow=blockThin;endFill=1;" parent="1" source="FJ86GNm1L7T-BAw07mQz-1" target="FJ86GNm1L7T-BAw07mQz-3" edge="1">
          <mxGeometry relative="1" as="geometry">
            <mxPoint x="1120" y="165" as="sourcePoint" />
            <mxPoint x="1210" y="330" as="targetPoint" />
          </mxGeometry>
        </mxCell>
        <mxCell id="FJ86GNm1L7T-BAw07mQz-24" value="&lt;font face=&quot;symbol&quot; style=&quot;background-color: rgb(251, 251, 251); font-size: 14px;&quot;&gt;k&lt;/font&gt;&lt;span style=&quot;background-color: rgb(251, 251, 251); font-size: 12px;&quot;&gt;&lt;sub&gt;road&lt;/sub&gt;&lt;/span&gt;&lt;div style=&quot;&quot;&gt;&lt;font face=&quot;symbol&quot; style=&quot;background-color: rgb(251, 251, 251); font-size: 14px;&quot;&gt;k&lt;/font&gt;&lt;span style=&quot;font-size: 12px; background-color: rgb(251, 251, 251);&quot;&gt;&lt;sub&gt;segment,near,i&lt;/sub&gt;&lt;/span&gt;&lt;/div&gt;&lt;div style=&quot;&quot;&gt;&lt;font face=&quot;symbol&quot; style=&quot;background-color: rgb(251, 251, 251); font-size: 14px;&quot;&gt;k&lt;/font&gt;&lt;span style=&quot;font-size: 12px; background-color: rgb(251, 251, 251);&quot;&gt;&lt;sub&gt;segment,far,i&lt;/sub&gt;&lt;/span&gt;&lt;/div&gt;" style="edgeLabel;html=1;align=left;verticalAlign=bottom;resizable=0;points=[];fontFamily=Helvetica;fontSize=12;fontColor=default;labelBackgroundColor=default;" parent="FJ86GNm1L7T-BAw07mQz-15" vertex="1" connectable="0">
          <mxGeometry x="0.0089" y="2" relative="1" as="geometry">
            <mxPoint x="46" y="69" as="offset" />
          </mxGeometry>
        </mxCell>
        <mxCell id="FJ86GNm1L7T-BAw07mQz-3" value="Curvature&lt;div&gt;Calculator&lt;/div&gt;" style="whiteSpace=wrap;html=1;fillColor=#f9f7ed;strokeColor=#36393d;fontSize=16;fontFamily=Helvetica;rounded=1;sketch=0;shadow=1;" parent="1" vertex="1">
          <mxGeometry x="1270" y="195" width="120" height="80" as="geometry" />
        </mxCell>
        <mxCell id="FJ86GNm1L7T-BAw07mQz-28" value="+" style="ellipse;whiteSpace=wrap;html=1;fontSize=20;fontStyle=1" parent="1" vertex="1">
          <mxGeometry x="1095" y="460" width="30" height="30" as="geometry" />
        </mxCell>
        <mxCell id="FJ86GNm1L7T-BAw07mQz-29" style="edgeStyle=orthogonalEdgeStyle;html=1;exitX=0.5;exitY=1;exitDx=0;exitDy=0;fontFamily=Helvetica;fontSize=10;startArrow=none;startFill=0;strokeWidth=3;endArrow=blockThin;endFill=1;entryX=1;entryY=0.5;entryDx=0;entryDy=0;" parent="1" source="FJ86GNm1L7T-BAw07mQz-4" target="FJ86GNm1L7T-BAw07mQz-28" edge="1">
          <mxGeometry relative="1" as="geometry">
            <mxPoint x="1340" y="285" as="sourcePoint" />
            <mxPoint x="1295" y="310" as="targetPoint" />
          </mxGeometry>
        </mxCell>
        <mxCell id="FJ86GNm1L7T-BAw07mQz-30" value="&lt;font face=&quot;symbol&quot; style=&quot;font-size: 14px;&quot;&gt;d&lt;/font&gt;&lt;sub&gt;&lt;font face=&quot;Helvetica&quot; style=&quot;font-size: 12px;&quot;&gt;h,&lt;/font&gt;&lt;font face=&quot;symbol&quot; style=&quot;font-size: 12px;&quot;&gt;k&lt;/font&gt;&lt;/sub&gt;" style="edgeLabel;html=1;align=center;verticalAlign=middle;resizable=0;points=[];fontFamily=Helvetica;fontSize=12;fontColor=default;labelBackgroundColor=none;" parent="FJ86GNm1L7T-BAw07mQz-29" vertex="1" connectable="0">
          <mxGeometry x="-0.6041" y="1" relative="1" as="geometry">
            <mxPoint x="14" y="-29" as="offset" />
          </mxGeometry>
        </mxCell>
        <mxCell id="FJ86GNm1L7T-BAw07mQz-31" style="edgeStyle=orthogonalEdgeStyle;html=1;exitX=0.5;exitY=1;exitDx=0;exitDy=0;fontFamily=Helvetica;fontSize=10;startArrow=none;startFill=0;strokeWidth=3;endArrow=blockThin;endFill=1;entryX=0;entryY=0.5;entryDx=0;entryDy=0;" parent="1" source="FJ86GNm1L7T-BAw07mQz-6" target="FJ86GNm1L7T-BAw07mQz-28" edge="1">
          <mxGeometry relative="1" as="geometry">
            <mxPoint x="1280" y="435" as="sourcePoint" />
            <mxPoint x="1135" y="485" as="targetPoint" />
          </mxGeometry>
        </mxCell>
        <mxCell id="FJ86GNm1L7T-BAw07mQz-32" value="&lt;font face=&quot;symbol&quot; style=&quot;font-size: 14px;&quot;&gt;d&lt;/font&gt;&lt;sub&gt;&lt;font style=&quot;font-size: 12px;&quot; face=&quot;Helvetica&quot;&gt;h,&lt;/font&gt;&lt;font face=&quot;symbol&quot; style=&quot;font-size: 12px;&quot;&gt;F&lt;/font&gt;&lt;/sub&gt;" style="edgeLabel;html=1;align=center;verticalAlign=middle;resizable=0;points=[];fontFamily=Helvetica;fontSize=12;fontColor=default;labelBackgroundColor=none;" parent="FJ86GNm1L7T-BAw07mQz-31" vertex="1" connectable="0">
          <mxGeometry x="-0.6041" y="1" relative="1" as="geometry">
            <mxPoint x="19" y="-29" as="offset" />
          </mxGeometry>
        </mxCell>
        <mxCell id="FJ86GNm1L7T-BAw07mQz-33" style="edgeStyle=orthogonalEdgeStyle;html=1;exitX=0.5;exitY=1;exitDx=0;exitDy=0;fontFamily=Helvetica;fontSize=10;startArrow=none;startFill=0;strokeWidth=3;endArrow=blockThin;endFill=1;entryX=0.5;entryY=0;entryDx=0;entryDy=0;" parent="1" source="FJ86GNm1L7T-BAw07mQz-5" target="FJ86GNm1L7T-BAw07mQz-28" edge="1">
          <mxGeometry relative="1" as="geometry">
            <mxPoint x="960" y="435" as="sourcePoint" />
            <mxPoint x="1105" y="485" as="targetPoint" />
          </mxGeometry>
        </mxCell>
        <mxCell id="FJ86GNm1L7T-BAw07mQz-34" value="&lt;font face=&quot;symbol&quot; style=&quot;font-size: 14px;&quot;&gt;d&lt;/font&gt;&lt;sub&gt;&lt;font face=&quot;Helvetica&quot; style=&quot;font-size: 12px;&quot;&gt;h,&lt;/font&gt;&lt;font style=&quot;font-size: 12px;&quot; face=&quot;Helvetica&quot;&gt;w&lt;/font&gt;&lt;/sub&gt;" style="edgeLabel;html=1;align=center;verticalAlign=middle;resizable=0;points=[];fontFamily=Helvetica;fontSize=12;fontColor=default;labelBackgroundColor=none;" parent="FJ86GNm1L7T-BAw07mQz-33" vertex="1" connectable="0">
          <mxGeometry x="-0.6041" y="1" relative="1" as="geometry">
            <mxPoint x="19" y="3" as="offset" />
          </mxGeometry>
        </mxCell>
        <mxCell id="FJ86GNm1L7T-BAw07mQz-35" style="edgeStyle=orthogonalEdgeStyle;html=1;fontFamily=Helvetica;fontSize=10;startArrow=none;startFill=0;strokeWidth=3;endArrow=blockThin;endFill=1;entryX=0.5;entryY=0;entryDx=0;entryDy=0;exitX=0.5;exitY=1;exitDx=0;exitDy=0;" parent="1" source="FJ86GNm1L7T-BAw07mQz-28" target="FJ86GNm1L7T-BAw07mQz-8" edge="1">
          <mxGeometry relative="1" as="geometry">
            <mxPoint x="1150" y="495" as="sourcePoint" />
            <mxPoint x="1120" y="470" as="targetPoint" />
          </mxGeometry>
        </mxCell>
        <mxCell id="FJ86GNm1L7T-BAw07mQz-36" value="&lt;font style=&quot;background-color: rgb(251, 251, 251); font-size: 14px;&quot; face=&quot;symbol&quot;&gt;d&lt;/font&gt;&lt;sub&gt;&lt;font style=&quot;font-size: 12px; background-color: rgb(251, 251, 251);&quot; face=&quot;Helvetica&quot;&gt;h&lt;/font&gt;&lt;/sub&gt;" style="edgeLabel;html=1;align=center;verticalAlign=middle;resizable=0;points=[];fontFamily=Helvetica;fontSize=12;fontColor=default;labelBackgroundColor=default;" parent="FJ86GNm1L7T-BAw07mQz-35" vertex="1" connectable="0">
          <mxGeometry x="-0.6041" y="1" relative="1" as="geometry">
            <mxPoint x="16" y="11" as="offset" />
          </mxGeometry>
        </mxCell>
        <mxCell id="FJ86GNm1L7T-BAw07mQz-37" style="edgeStyle=orthogonalEdgeStyle;html=1;exitX=0.5;exitY=1;exitDx=0;exitDy=0;fontFamily=Helvetica;fontSize=10;startArrow=none;startFill=0;strokeWidth=3;endArrow=blockThin;endFill=1;entryX=0.5;entryY=0;entryDx=0;entryDy=0;" parent="1" source="FJ86GNm1L7T-BAw07mQz-1" target="FJ86GNm1L7T-BAw07mQz-5" edge="1">
          <mxGeometry relative="1" as="geometry">
            <mxPoint x="1180" y="105" as="sourcePoint" />
            <mxPoint x="1340" y="205" as="targetPoint" />
          </mxGeometry>
        </mxCell>
        <mxCell id="FJ86GNm1L7T-BAw07mQz-38" value="&lt;span style=&quot;font-size: 14px;&quot;&gt;&lt;font style=&quot;font-size: 14px;&quot; face=&quot;symbol&quot;&gt;D&lt;/font&gt;w&lt;/span&gt;" style="edgeLabel;html=1;align=left;verticalAlign=bottom;resizable=0;points=[];fontFamily=Helvetica;fontSize=14;fontColor=default;labelBackgroundColor=none;" parent="FJ86GNm1L7T-BAw07mQz-37" vertex="1" connectable="0">
          <mxGeometry x="0.0089" y="2" relative="1" as="geometry">
            <mxPoint x="5" y="-68" as="offset" />
          </mxGeometry>
        </mxCell>
        <mxCell id="FJ86GNm1L7T-BAw07mQz-39" style="edgeStyle=orthogonalEdgeStyle;html=1;exitX=0;exitY=0.5;exitDx=0;exitDy=0;fontFamily=Helvetica;fontSize=10;startArrow=none;startFill=0;strokeWidth=3;endArrow=blockThin;endFill=1;entryX=0.5;entryY=0;entryDx=0;entryDy=0;" parent="1" source="FJ86GNm1L7T-BAw07mQz-1" target="FJ86GNm1L7T-BAw07mQz-6" edge="1">
          <mxGeometry relative="1" as="geometry">
            <mxPoint x="1120" y="165" as="sourcePoint" />
            <mxPoint x="1120" y="355" as="targetPoint" />
          </mxGeometry>
        </mxCell>
        <mxCell id="FJ86GNm1L7T-BAw07mQz-40" value="&lt;font face=&quot;symbol&quot; style=&quot;font-size: 14px;&quot;&gt;DF&lt;/font&gt;" style="edgeLabel;html=1;align=left;verticalAlign=bottom;resizable=0;points=[];fontFamily=Helvetica;fontSize=14;fontColor=default;labelBackgroundColor=none;" parent="FJ86GNm1L7T-BAw07mQz-39" vertex="1" connectable="0">
          <mxGeometry x="0.0089" y="2" relative="1" as="geometry">
            <mxPoint x="2" y="1" as="offset" />
          </mxGeometry>
        </mxCell>
        <mxCell id="FJ86GNm1L7T-BAw07mQz-4" value="Curvature&lt;div&gt;Controller&lt;/div&gt;" style="whiteSpace=wrap;html=1;fillColor=#b0e3e6;strokeColor=#6c8ebf;fontSize=16;fontFamily=Helvetica;rounded=1;sketch=0;shadow=1;" parent="1" vertex="1">
          <mxGeometry x="1210" y="345" width="120" height="80" as="geometry" />
        </mxCell>
        <mxCell id="FJ86GNm1L7T-BAw07mQz-5" value="Lateral&lt;br&gt;Deviation&lt;br&gt;Controller" style="whiteSpace=wrap;html=1;fillColor=#b0e3e6;strokeColor=#6c8ebf;fontSize=16;fontFamily=Helvetica;rounded=1;sketch=0;shadow=1;" parent="1" vertex="1">
          <mxGeometry x="1050" y="345" width="120" height="80" as="geometry" />
        </mxCell>
        <mxCell id="FJ86GNm1L7T-BAw07mQz-6" value="Heading Error&lt;br&gt;Controller&lt;br&gt;(Closed Loop)" style="whiteSpace=wrap;html=1;fillColor=#b0e3e6;strokeColor=#6c8ebf;fontSize=16;fontFamily=Helvetica;rounded=1;sketch=0;shadow=1;" parent="1" vertex="1">
          <mxGeometry x="890" y="345" width="120" height="80" as="geometry" />
        </mxCell>
        <mxCell id="FJ86GNm1L7T-BAw07mQz-48" style="edgeStyle=orthogonalEdgeStyle;html=1;exitX=0.5;exitY=1;exitDx=0;exitDy=0;entryX=0.5;entryY=0;entryDx=0;entryDy=0;fontFamily=Helvetica;fontSize=10;startArrow=none;startFill=0;strokeWidth=3;endArrow=blockThin;endFill=1;" parent="1" source="FJ86GNm1L7T-BAw07mQz-8" target="FJ86GNm1L7T-BAw07mQz-7" edge="1">
          <mxGeometry relative="1" as="geometry">
            <mxPoint x="1280" y="325" as="sourcePoint" />
            <mxPoint x="1280" y="355" as="targetPoint" />
          </mxGeometry>
        </mxCell>
        <mxCell id="FJ86GNm1L7T-BAw07mQz-49" value="&lt;font style=&quot;font-size: 14px;&quot; face=&quot;symbol&quot;&gt;k&lt;/font&gt;&lt;span style=&quot;font-size: 12px;&quot;&gt;&lt;sub&gt;act&lt;/sub&gt;&lt;/span&gt;" style="edgeLabel;html=1;align=center;verticalAlign=middle;resizable=0;points=[];fontSize=12;fontFamily=Helvetica;labelBackgroundColor=none;" parent="FJ86GNm1L7T-BAw07mQz-48" vertex="1" connectable="0">
          <mxGeometry x="0.1716" relative="1" as="geometry">
            <mxPoint x="20" y="-7" as="offset" />
          </mxGeometry>
        </mxCell>
        <mxCell id="FJ86GNm1L7T-BAw07mQz-51" style="edgeStyle=orthogonalEdgeStyle;html=1;exitX=0.25;exitY=1;exitDx=0;exitDy=0;entryX=0.25;entryY=0;entryDx=0;entryDy=0;fontFamily=Helvetica;fontSize=10;startArrow=none;startFill=0;endArrow=blockThin;endFill=1;strokeWidth=3;" parent="1" source="FJ86GNm1L7T-BAw07mQz-7" target="FJ86GNm1L7T-BAw07mQz-1" edge="1">
          <mxGeometry relative="1" as="geometry">
            <mxPoint x="630" y="840" as="sourcePoint" />
            <mxPoint x="590" y="840" as="targetPoint" />
            <Array as="points">
              <mxPoint x="1080" y="770" />
              <mxPoint x="1440" y="770" />
              <mxPoint x="1440" y="40" />
              <mxPoint x="1080" y="40" />
            </Array>
          </mxGeometry>
        </mxCell>
        <mxCell id="FJ86GNm1L7T-BAw07mQz-56" value="&lt;font face=&quot;symbol&quot; style=&quot;font-size: 14px;&quot;&gt;F&lt;/font&gt;&lt;sub style=&quot;font-size: 12px;&quot;&gt;act&lt;/sub&gt;" style="edgeLabel;html=1;align=center;verticalAlign=middle;resizable=0;points=[];fontFamily=Helvetica;fontSize=12;fontColor=default;labelBackgroundColor=none;" parent="FJ86GNm1L7T-BAw07mQz-51" vertex="1" connectable="0">
          <mxGeometry x="-0.9521" y="-1" relative="1" as="geometry">
            <mxPoint x="19" y="-22" as="offset" />
          </mxGeometry>
        </mxCell>
        <mxCell id="FJ86GNm1L7T-BAw07mQz-1" value="Driver&lt;br&gt;Behavior&lt;br&gt;Model" style="rounded=1;whiteSpace=wrap;html=1;fillColor=#ffcccc;strokeColor=#36393d;fontSize=16;fontFamily=Helvetica;glass=0;sketch=0;shadow=1;" parent="1" vertex="1">
          <mxGeometry x="1050" y="75" width="120" height="80" as="geometry" />
        </mxCell>
        <mxCell id="FJ86GNm1L7T-BAw07mQz-58" style="edgeStyle=orthogonalEdgeStyle;html=1;exitX=0.75;exitY=1;exitDx=0;exitDy=0;entryX=0.75;entryY=0;entryDx=0;entryDy=0;fontFamily=Helvetica;fontSize=10;startArrow=none;startFill=0;endArrow=blockThin;endFill=1;strokeWidth=3;" parent="1" source="FJ86GNm1L7T-BAw07mQz-7" target="FJ86GNm1L7T-BAw07mQz-1" edge="1">
          <mxGeometry relative="1" as="geometry">
            <mxPoint x="1090" y="740" as="sourcePoint" />
            <mxPoint x="1090" y="85" as="targetPoint" />
            <Array as="points">
              <mxPoint x="1140" y="760" />
              <mxPoint x="1430" y="760" />
              <mxPoint x="1430" y="50" />
              <mxPoint x="1140" y="50" />
            </Array>
          </mxGeometry>
        </mxCell>
        <mxCell id="FJ86GNm1L7T-BAw07mQz-60" value="&lt;font style=&quot;font-size: 14px;&quot; face=&quot;Helvetica&quot;&gt;w&lt;/font&gt;&lt;sub style=&quot;font-size: 12px;&quot;&gt;act&lt;/sub&gt;" style="edgeLabel;html=1;align=center;verticalAlign=middle;resizable=0;points=[];fontFamily=Helvetica;fontSize=12;fontColor=default;labelBackgroundColor=none;" parent="FJ86GNm1L7T-BAw07mQz-58" vertex="1" connectable="0">
          <mxGeometry x="-0.9521" y="-1" relative="1" as="geometry">
            <mxPoint x="17" y="-18" as="offset" />
          </mxGeometry>
        </mxCell>
      </root>
    </mxGraphModel>
  </diagram>
</mxfile>
